{
  "result": {
    "readability": {
      "results": [
        {
          "_hasScore": true,
          "_identifier": "textPresence",
          "_hasMarks": false,
          "score": 3,
          "text": "<a href='https://yoa.st/35h' target='_blank'>Not enough content</a>: <a href='https://yoa.st/35i' target='_blank'>Please add some content to enable a good analysis</a>.",
          "marks": []
        }
      ],
      "score": 0
    },
    "seo": {
      "": {
        "results": [
          {
            "_hasScore": true,
            "_identifier": "keyphraseLength",
            "_hasMarks": false,
            "score": -999,
            "text": "<a href='https://yoa.st/33i' target='_blank'>Keyphrase length</a>: No focus keyphrase was set for this page. <a href='https://yoa.st/33j' target='_blank'>Set a keyphrase in order to calculate your SEO score</a>.",
            "marks": []
          },
          {
            "_hasScore": true,
            "_identifier": "metaDescriptionLength",
            "_hasMarks": false,
            "score": 1,
            "text": "<a href='https://yoa.st/34d' target='_blank'>Meta description length</a>:  No meta description has been specified. Search engines will display copy from the page instead. <a href='https://yoa.st/34e' target='_blank'>Make sure to write one</a>!",
            "marks": []
          },
          {
            "_hasScore": true,
            "_identifier": "textLength",
            "_hasMarks": false,
            "score": -20,
            "text": "<a href='https://yoa.st/34n' target='_blank'>Text length</a>: The text contains 0 words. This is far below the recommended minimum of 300 words. <a href='https://yoa.st/34o' target='_blank'>Add more content</a>.",
            "marks": []
          },
          {
            "_hasScore": true,
            "_identifier": "titleWidth",
            "_hasMarks": false,
            "score": 1,
            "text": "<a href='https://yoa.st/34h' target='_blank'>SEO title width</a>: <a href='https://yoa.st/34i' target='_blank'>Please create an SEO title</a>.",
            "marks": []
          }
        ],
        "score": -2825
      }
    }
  },
  "data": {}
}
